BSAS5B_student-25Jul2022_restored/simulation/qsim/BSAS.msim.vcd
$comment
	File created using the following command:
		vcd file BSAS.msim.vcd -direction
$end
$date
	Fri Apr 28 13:27:18 2023
$end
$version
	ModelSim Version 10.5b
$end
$timescale
	1ps
$end

$scope module SerialAdder_vlg_vec_tst $end
$var reg 1 ! Clock $end
$var reg 1 " Reset $end
$var reg 1 # Sub $end
$var reg 1 $ Xi $end
$var reg 1 % Yi $end
$var wire 1 & Sum $end

$scope module i1 $end
$var wire 1 ' gnd $end
$var wire 1 ( vcc $end
$var wire 1 ) unknown $end
$var tri1 1 * devclrn $end
$var tri1 1 + devpor $end
$var tri1 1 , devoe $end
$var wire 1 - Sum~output_o $end
$var wire 1 . Xi~input_o $end
$var wire 1 / Yi~input_o $end
$var wire 1 0 Sub~input_o $end
$var wire 1 1 Reset~input_o $end
$var wire 1 2 inst2~1_combout $end
$var wire 1 3 Clock~input_o $end
$var wire 1 4 inst2~3_combout $end
$var wire 1 5 inst2~0_combout $end
$var wire 1 6 inst2~_emulated_q $end
$var wire 1 7 inst2~2_combout $end
$var wire 1 8 inst|inst1~0_combout $end
$upscope $end
$upscope $end
$enddefinitions $end
#0
$dumpvars
0!
0"
1#
0$
1%
x&
0'
1(
x)
1*
1+
1,
x-
0.
1/
10
01
x2
03
x4
x5
06
x7
x8
$end
#2905
15
#3255
12
17
#3556
08
#3848
04
#6463
0-
0&
#10000
1"
#10516
11
#13514
07
#13516
02
#13854
18
#16781
1-
1&
#20000
1!
1$
#20516
13
1.
#23647
14
#23659
08
#26566
0-
0&
#40000
0%
0"
0!
0$
#40681
03
0.
01
0/
#43910
04
#43936
12
17
#44247
18
#44521
14
#47174
1-
1&
#60000
1!
1$
#60516
13
1.
#63659
04
08
#66566
0-
0&
#80000
1%
0!
0$
#80516
1/
#80681
03
0.
#83501
18
#84090
08
#100000
1!
1$
#100516
13
1.
#103647
18
#106574
1-
1&
#120000
0#
0%
0!
0$
#120681
03
0.
0/
00
#123850
05
#124078
14
#140000
1!
1$
#140516
13
1.
#143659
04
08
#146566
0-
0&
#160000
1%
0!
0$
#160516
1/
#160681
03
0.
#163501
18
#164090
08
#180000
1!
1$
#180516
13
1.
#183647
18
#186574
1-
1&
#200000
0%
0!
0$
#200681
03
0.
0/
#204078
14
#210000
1#
#210516
10
#213421
15
#220000
1!
1$
#220516
13
1.
#223659
04
08
#226566
0-
0&
#240000
1%
0!
0$
#240516
1/
#240681
03
0.
#243501
18
#244090
08
#260000
1!
1$
#260516
13
1.
#263647
18
#266574
1-
1&
#280000
0%
0!
0$
#280681
03
0.
0/
#284078
14
#300000
1!
1$
#300516
13
1.
#303659
04
08
#306566
0-
0&
#320000
1%
0!
0$
#320516
1/
#320681
03
0.
#323501
18
#324090
08
#340000
1!
1$
#340516
13
1.
#343647
18
#346574
1-
1&
#360000
0%
0!
0$
#360681
03
0.
0/
#364078
14
#380000
1!
1$
#380516
13
1.
#383659
04
08
#386566
0-
0&
#400000
1%
0!
0$
#400516
1/
#400681
03
0.
#403501
18
#404090
08
#420000
1!
1$
#420516
13
1.
#423647
18
#426574
1-
1&
#440000
0%
0!
0$
#440681
03
0.
0/
#444078
14
#460000
1!
1$
#460516
13
1.
#463659
04
08
#466566
0-
0&
#480000
1%
0!
0$
#480516
1/
#480681
03
0.
#483501
18
#484090
08
#500000
1!
1$
#500516
13
1.
#503647
18
#506574
1-
1&
#520000
0%
0!
0$
#520681
03
0.
0/
#524078
14
#540000
1!
1$
#540516
13
1.
#543659
04
08
#546566
0-
0&
#560000
1%
0!
0$
#560516
1/
#560681
03
0.
#563501
18
#564090
08
#580000
1!
1$
#580516
13
1.
#583647
18
#586574
1-
1&
#600000
0%
0!
0$
#600681
03
0.
0/
#604078
14
#620000
1!
1$
#620516
13
1.
#623659
04
08
#626566
0-
0&
#640000
1%
0!
0$
#640516
1/
#640681
03
0.
#643501
18
#644090
08
#660000
1!
1$
#660516
13
1.
#663647
18
#666574
1-
1&
#680000
0%
0!
0$
#680681
03
0.
0/
#684078
14
#700000
1!
1$
#700516
13
1.
#703659
04
08
#706566
0-
0&
#720000
1%
0!
0$
#720516
1/
#720681
03
0.
#723501
18
#724090
08
#740000
1!
1$
#740516
13
1.
#743647
18
#746574
1-
1&
#760000
0%
0!
0$
#760681
03
0.
0/
#764078
14
#780000
1!
1$
#780516
13
1.
#783659
04
08
#786566
0-
0&
#800000
1%
0!
0$
#800516
1/
#800681
03
0.
#803501
18
#804090
08
#820000
1!
1$
#820516
13
1.
#823647
18
#826574
1-
1&
#840000
0%
0!
0$
#840681
03
0.
0/
#844078
14
#860000
1!
1$
#860516
13
1.
#863659
04
08
#866566
0-
0&
#880000
1%
0!
0$
#880516
1/
#880681
03
0.
#883501
18
#884090
08
#900000
1!
1$
#900516
13
1.
#903647
18
#906574
1-
1&
#920000
0%
0!
0$
#920681
03
0.
0/
#924078
14
#940000
1!
1$
#940516
13
1.
#943659
04
08
#946566
0-
0&
#960000
1%
0!
0$
#960516
1/
#960681
03
0.
#963501
18
#964090
08
#980000
1!
1$
#980516
13
1.
#983647
18
#986574
1-
1&
